{
  "ndkFolder": "/Users/marshalltaylor/Library/Android/sdk/ndk/22.0.7026061",
  "messages": [
    {
      "level": "INFO",
      "message": "android.ndkVersion from module build.gradle is not set"
    },
    {
      "level": "INFO",
      "message": "ndk.dir in local.properties is not set"
    },
    {
      "level": "INFO",
      "message": "ANDROID_NDK_HOME environment variable is not set"
    },
    {
      "level": "INFO",
      "message": "sdkFolder is /Users/marshalltaylor/Library/Android/sdk"
    },
    {
      "level": "INFO",
      "message": "Considering /Users/marshalltaylor/Library/Android/sdk/ndk-bundle in SDK ndk-bundle folder"
    },
    {
      "level": "INFO",
      "message": "Considering /Users/marshalltaylor/Library/Android/sdk/ndk/22.0.7026061 in SDK ndk folder"
    },
    {
      "level": "INFO",
      "message": "Considering /Users/marshalltaylor/Library/Android/sdk/ndk/21.3.6528147 in SDK ndk folder"
    },
    {
      "level": "INFO",
      "message": "Considering /Users/marshalltaylor/Library/Android/sdk/ndk/23.0.7599858 in SDK ndk folder"
    },
    {
      "level": "INFO",
      "message": "Rejected /Users/marshalltaylor/Library/Android/sdk/ndk-bundle in SDK ndk-bundle folder because that location has no source.properties"
    },
    {
      "level": "INFO",
      "message": "Rejected /Users/marshalltaylor/Library/Android/sdk/ndk/23.0.7599858 in SDK ndk folder because that location has no source.properties"
    },
    {
      "level": "INFO",
      "message": "No user requested version, choosing /Users/marshalltaylor/Library/Android/sdk/ndk/22.0.7026061 which is version 22.0.7026061"
    }
  ]
}