
{
	"buildFiles" : 
	[
		"/Users/marshalltaylor/Local_Docs/Flutter/native_opencv/android/CMakeLists.txt"
	],
	"cleanCommands" : 
	[
		"/Users/marshalltaylor/Library/Android/sdk/cmake/3.6.4111459/bin/cmake --build /Users/marshalltaylor/Local_Docs/Flutter/native_opencv/android/.cxx/cmake/profile/armeabi-v7a --target clean"
	],
	"cppFileExtensions" : [ "cpp" ],
	"libraries" : 
	{
		"lib_opencv-Debug-armeabi-v7a" : 
		{
			"abi" : "armeabi-v7a",
			"artifactName" : "lib_opencv",
			"buildType" : "debug",
			"output" : "/Users/marshalltaylor/Local_Docs/Flutter/native_opencv/android/src/main/jniLibs/armeabi-v7a/libopencv_java4.so",
			"toolchain" : "5042258321250485725"
		},
		"native_opencv-Debug-armeabi-v7a" : 
		{
			"abi" : "armeabi-v7a",
			"artifactName" : "native_opencv",
			"buildCommand" : "/Users/marshalltaylor/Library/Android/sdk/cmake/3.6.4111459/bin/cmake --build /Users/marshalltaylor/Local_Docs/Flutter/native_opencv/android/.cxx/cmake/profile/armeabi-v7a --target native_opencv",
			"buildType" : "debug",
			"files" : 
			[
				
				{
					"flags" : "  --target=armv7-none-linux-androideabi16 --gcc-toolchain=/Users/marshalltaylor/Library/Android/sdk/ndk/21.3.6528147/toolchains/llvm/prebuilt/darwin-x86_64 --sysroot=/Users/marshalltaylor/Library/Android/sdk/ndk/21.3.6528147/toolchains/llvm/prebuilt/darwin-x86_64/sysroot  -Dnative_opencv_EXPORTS -I../../../../../include  -g -DANDROID -fdata-sections -ffunction-sections -funwind-tables -fstack-protector-strong -no-canonical-prefixes -D_FORTIFY_SOURCE=2 -march=armv7-a -mthumb -Wformat -Werror=format-security  -frtti -fexceptions -std=c++11 -O0 -fno-limit-debug-info  -fPIC    -c ",
					"src" : "/Users/marshalltaylor/Local_Docs/Flutter/native_opencv/ios/Classes/native_opencv.cpp",
					"workingDirectory" : "/Users/marshalltaylor/Local_Docs/Flutter/native_opencv/android/.cxx/cmake/profile/armeabi-v7a"
				}
			],
			"output" : "/Users/marshalltaylor/Local_Docs/Flutter/native_opencv/example/build/native_opencv/intermediates/cmake/profile/obj/armeabi-v7a/libnative_opencv.so",
			"toolchain" : "5042258321250485725"
		}
	},
	"toolchains" : 
	{
		"5042258321250485725" : 
		{
			"cCompilerExecutable" : "/Users/marshalltaylor/Library/Android/sdk/ndk/21.3.6528147/toolchains/llvm/prebuilt/darwin-x86_64/bin/clang",
			"cppCompilerExecutable" : "/Users/marshalltaylor/Library/Android/sdk/ndk/21.3.6528147/toolchains/llvm/prebuilt/darwin-x86_64/bin/clang++"
		}
	}
}
